^C:\USERS\DEN-P\SOURCE\REPOS\HOM WORK\HOM WORK.CPP
C:\USERS\DEN-P\SOURCE\REPOS\HOM WORK\X64\DEBUG\VC143.PDB
C:\USERS\DEN-P\SOURCE\REPOS\HOM WORK\X64\DEBUG\VC143.IDB
C:\USERS\DEN-P\SOURCE\REPOS\HOM WORK\X64\DEBUG\HOM WORK.OBJ
